%YAML 1.1
%TAG !u! tag:unity3d.com,2011:
--- !u!74 &7400000
AnimationClip:
  m_ObjectHideFlags: 0
  m_CorrespondingSourceObject: {fileID: 0}
  m_PrefabInstance: {fileID: 0}
  m_PrefabAsset: {fileID: 0}
  m_Name: Player_hit
  serializedVersion: 6
  m_Legacy: 0
  m_Compressed: 0
  m_UseHighQualityCurve: 1
  m_RotationCurves: []
  m_CompressedRotationCurves: []
  m_EulerCurves: []
  m_PositionCurves: []
  m_ScaleCurves: []
  m_FloatCurves: []
  m_PPtrCurves:
  - curve:
    - time: 0
      value: {fileID: 21300000, guid: 42c11abe655c6321ba89a71a86a037ed, type: 3}
    - time: 0.25
      value: {fileID: 21300000, guid: ebd60dd3723086991ad60ace79a16caa, type: 3}
    - time: 0.5
      value: {fileID: 21300000, guid: cef25c418676d6dc182db422df663c8b, type: 3}
    - time: 0.75
      value: {fileID: 21300000, guid: cef25c418676d6dc182db422df663c8b, type: 3}
    - time: 1
      value: {fileID: 21300000, guid: cef25c418676d6dc182db422df663c8b, type: 3}
    - time: 1.25
      value: {fileID: 21300000, guid: 644844581a5e4b32c84e71f5d15904cf, type: 3}
    - time: 1.5
      value: {fileID: 21300000, guid: 644844581a5e4b32c84e71f5d15904cf, type: 3}
    - time: 1.75
      value: {fileID: 21300000, guid: cef25c418676d6dc182db422df663c8b, type: 3}
    - time: 2
      value: {fileID: 21300000, guid: cef25c418676d6dc182db422df663c8b, type: 3}
    - time: 2.25
      value: {fileID: 21300000, guid: cef25c418676d6dc182db422df663c8b, type: 3}
    - time: 2.5
      value: {fileID: 21300000, guid: 644844581a5e4b32c84e71f5d15904cf, type: 3}
    - time: 2.75
      value: {fileID: 21300000, guid: 644844581a5e4b32c84e71f5d15904cf, type: 3}
    - time: 3
      value: {fileID: 21300000, guid: cef25c418676d6dc182db422df663c8b, type: 3}
    - time: 3.25
      value: {fileID: 21300000, guid: cef25c418676d6dc182db422df663c8b, type: 3}
    - time: 3.5
      value: {fileID: 21300000, guid: cef25c418676d6dc182db422df663c8b, type: 3}
    - time: 3.75
      value: {fileID: 21300000, guid: 644844581a5e4b32c84e71f5d15904cf, type: 3}
    - time: 4
      value: {fileID: 21300000, guid: 644844581a5e4b32c84e71f5d15904cf, type: 3}
    - time: 4.25
      value: {fileID: 21300000, guid: 768578d5b972a99d0ab894939e91951c, type: 3}
    - time: 4.5
      value: {fileID: 21300000, guid: 768578d5b972a99d0ab894939e91951c, type: 3}
    - time: 4.75
      value: {fileID: 21300000, guid: 768578d5b972a99d0ab894939e91951c, type: 3}
    - time: 5
      value: {fileID: 21300000, guid: 768578d5b972a99d0ab894939e91951c, type: 3}
    attribute: m_Sprite
    path: 
    classID: 212
    script: {fileID: 0}
  m_SampleRate: 4
  m_WrapMode: 0
  m_Bounds:
    m_Center: {x: 0, y: 0, z: 0}
    m_Extent: {x: 0, y: 0, z: 0}
  m_ClipBindingConstant:
    genericBindings:
    - serializedVersion: 2
      path: 0
      attribute: 0
      script: {fileID: 0}
      typeID: 212
      customType: 23
      isPPtrCurve: 1
    pptrCurveMapping:
    - {fileID: 21300000, guid: 42c11abe655c6321ba89a71a86a037ed, type: 3}
    - {fileID: 21300000, guid: ebd60dd3723086991ad60ace79a16caa, type: 3}
    - {fileID: 21300000, guid: cef25c418676d6dc182db422df663c8b, type: 3}
    - {fileID: 21300000, guid: cef25c418676d6dc182db422df663c8b, type: 3}
    - {fileID: 21300000, guid: cef25c418676d6dc182db422df663c8b, type: 3}
    - {fileID: 21300000, guid: 644844581a5e4b32c84e71f5d15904cf, type: 3}
    - {fileID: 21300000, guid: 644844581a5e4b32c84e71f5d15904cf, type: 3}
    - {fileID: 21300000, guid: cef25c418676d6dc182db422df663c8b, type: 3}
    - {fileID: 21300000, guid: cef25c418676d6dc182db422df663c8b, type: 3}
    - {fileID: 21300000, guid: cef25c418676d6dc182db422df663c8b, type: 3}
    - {fileID: 21300000, guid: 644844581a5e4b32c84e71f5d15904cf, type: 3}
    - {fileID: 21300000, guid: 644844581a5e4b32c84e71f5d15904cf, type: 3}
    - {fileID: 21300000, guid: cef25c418676d6dc182db422df663c8b, type: 3}
    - {fileID: 21300000, guid: cef25c418676d6dc182db422df663c8b, type: 3}
    - {fileID: 21300000, guid: cef25c418676d6dc182db422df663c8b, type: 3}
    - {fileID: 21300000, guid: 644844581a5e4b32c84e71f5d15904cf, type: 3}
    - {fileID: 21300000, guid: 644844581a5e4b32c84e71f5d15904cf, type: 3}
    - {fileID: 21300000, guid: 768578d5b972a99d0ab894939e91951c, type: 3}
    - {fileID: 21300000, guid: 768578d5b972a99d0ab894939e91951c, type: 3}
    - {fileID: 21300000, guid: 768578d5b972a99d0ab894939e91951c, type: 3}
    - {fileID: 21300000, guid: 768578d5b972a99d0ab894939e91951c, type: 3}
  m_AnimationClipSettings:
    serializedVersion: 2
    m_AdditiveReferencePoseClip: {fileID: 0}
    m_AdditiveReferencePoseTime: 0
    m_StartTime: 0
    m_StopTime: 5.25
    m_OrientationOffsetY: 0
    m_Level: 0
    m_CycleOffset: 0
    m_HasAdditiveReferencePose: 0
    m_LoopTime: 1
    m_LoopBlend: 0
    m_LoopBlendOrientation: 0
    m_LoopBlendPositionY: 0
    m_LoopBlendPositionXZ: 0
    m_KeepOriginalOrientation: 0
    m_KeepOriginalPositionY: 1
    m_KeepOriginalPositionXZ: 0
    m_HeightFromFeet: 0
    m_Mirror: 0
  m_EditorCurves: []
  m_EulerEditorCurves: []
  m_HasGenericRootTransform: 0
  m_HasMotionFloatCurves: 0
  m_Events: []
